{"items":[{"id":"155a84f1-6ba5-43fd-aea4-eb58284b4ffd","caller_number":"+923335180836","receiver_number":"+923461646090","call_type":"incoming","duration":2235,"timestamp":"2026-03-20T19:52:22.941207Z","city":"Islamabad","location":"F-10","created_at":"2026-03-21T15:35:23.259568Z"},{"id":"097491d2-a82d-44d6-ac7a-664040875b2f","caller_number":"+923354493254","receiver_number":"+923192412270","call_type":"outgoing","duration":2068,"timestamp":"2026-03-20T14:47:22.941207Z","city":"Peshawar","location":"Hayatabad","created_at":"2026-03-21T15:35:23.255178Z"},{"id":"c5bdc758-339c-488a-a22e-152af8715be6","caller_number":"+923373568034","receiver_number":"+923219114298","call_type":"incoming","duration":1765,"timestamp":"2026-03-20T08:11:22.941207Z","city":"Multan","location":"Gulgasht","created_at":"2026-03-21T15:35:23.253347Z"},{"id":"2016c439-06fe-4d4a-b81e-c1c614bdc4a4","caller_number":"+923345665361","receiver_number":"+923173144133","call_type":"incoming","duration":3199,"timestamp":"2026-03-20T07:51:22.941207Z","city":"Faisalabad","location":"D Ground","created_at":"2026-03-21T15:35:23.260174Z"},{"id":"c864e631-4f5f-4d12-8739-620395538036","caller_number":"+923386011195","receiver_number":"+923199245027","call_type":"incoming","duration":178,"timestamp":"2026-03-20T03:49:22.941207Z","city":"Rawalpindi","location":"Chaklala","created_at":"2026-03-21T15:35:23.265779Z"}],"page":2,"page_size":5,"total":253,"total_pages":51}