{"items":[{"id":"042b433e-e26b-4ca6-a287-92ff30fa24bc","caller_number":"+923309218840","receiver_number":"+923234006903","call_type":"incoming","duration":3573,"timestamp":"2026-03-21T12:22:22.941207Z","city":"Rawalpindi","location":"Satellite Town","created_at":"2026-03-21T15:35:23.272308Z"},{"id":"9f6f95d0-d625-430f-aeb6-929047a1206f","caller_number":"+923356344259","receiver_number":"+923293731928","call_type":"incoming","duration":2878,"timestamp":"2026-03-21T05:24:22.941207Z","city":"Lahore","location":"Wapda Town","created_at":"2026-03-21T15:35:23.265520Z"},{"id":"c3f3ad56-8e7a-4c12-abe1-090e0adf07d1","caller_number":"+923313978762","receiver_number":"+923278164385","call_type":"outgoing","duration":705,"timestamp":"2026-03-21T03:57:22.941207Z","city":"Islamabad","location":"F-10","created_at":"2026-03-21T15:35:23.259439Z"},{"id":"e3dec912-0946-41cd-a6e6-f9165fe6e92a","caller_number":"+923372823522","receiver_number":"+923109093776","call_type":"outgoing","duration":50,"timestamp":"2026-03-21T02:59:22.941207Z","city":"Karachi","location":"Clifton","created_at":"2026-03-21T15:35:23.271473Z"},{"id":"75799480-4bb1-48fc-81f3-4381b7b4ac30","caller_number":"+923367911825","receiver_number":"+923032524153","call_type":"incoming","duration":920,"timestamp":"2026-03-20T21:01:22.941207Z","city":"Rawalpindi","location":"Saddar","created_at":"2026-03-21T15:35:23.260365Z"}],"page":1,"page_size":5,"total":253,"total_pages":51}